[{
    "icon": "appstore",
    "name": "Alert",
    "redirecTo": "/alert"
  },
  {
    "icon": "american-football",
    "name": "Action Sheet",
    "redirecTo": "/action-sheet"
  },
  {
    "icon": "beaker",
    "name": "Avatar",
    "redirecTo": "/avatar"
  },
  {
    "icon": "radio-button-on",
    "name": "Botones",
    "redirecTo": "/botones"
  },
  {
    "icon": "card",
    "name": "Cards",
    "redirecTo": "/card"
  },
  {
    "icon": "checkmark-circle-outline",
    "name": "Check",
    "redirecTo": "/check"
  },
  {
    "icon": "calendar",
    "name": "DateTime",
    "redirecTo": "/date-time"
  },
  {
    "icon": "car",
    "name": "Fabs",
    "redirecTo": "/fab"
  },
  {
    "icon": "grid",
    "name": "Grid - Rows",
    "redirecTo": "/grid"
  },
  {
    "icon": "infinite",
    "name": "Infinite Scroll",
    "redirecTo": "/infinite"
  },
  {
    "icon": "hammer",
    "name": "Input - Forms",
    "redirecTo": "/input"
  },
  {
    "icon": "list",
    "name": "Listas - Sliding",
    "redirecTo": "/lista"
  },
  {
    "icon": "reorder",
    "name": "Listas - Reorder",
    "redirecTo": "/list-reorder"
  },
  {
    "icon": "refresh-circle",
    "name": "Loading",
    "redirecTo": "/loading"
  },
  {
    "icon": "phone-portrait",
    "name": "Modal",
    "redirecTo": "/modal"
  },
  {
    "icon": "tablet-portrait",
    "name": "PopOver",
    "redirecTo": "/popover"
  },
  {
    "icon": "code-working",
    "name": "ProgressBar y Range",
    "redirecTo": "/progres-bar"
  },
  {
    "icon": "arrow-round-down",
    "name": "Refresher",
    "redirecTo": "/refresher"
  },
  {
    "icon": "search",
    "name": "SearchBar",
    "redirecTo": "/searchbar"
  },
  {
    "icon": "copy",
    "name": "Segment",
    "redirecTo": "/segment"
  },
  {
    "icon": "albums",
    "name": "Slides",
    "redirecTo": "/slides"
  },
  {
    "icon": "cog",
    "name": "Tabs",
    "redirecTo": "/tabs/account"
  }
]